{
    "uncertain": [],
    "Москва г.": {
        "name": "Москва г.",
        "type": "city",
        "childs": {
            "Пресненский р-н": {
                "name": "Пресненский р-н",
                "type": "district",
                "childs": {
                    "Гашека ул.": {
                        "name": "Гашека ул.",
                        "type": "street",
                        "childs": {
                            "citizens": [
                                "Анна",
                                "Михаил",
                                "Арсений",
                                "Степан",
                                "Павел",
                                "Григорий"
                            ],
                            "cityId": 1
                        }
                    },
                    "Рочдельская ул.": {
                        "name": "Рочдельская ул.",
                        "type": "street",
                        "childs": {
                            "citizens": [
                                "Степан",
                                "Варвара"
                            ],
                            "cityId": 1
                        }
                    }
                }
            },
            "Коптево р-н": {
                "name": "Коптево р-н",
                "type": "district",
                "childs": {
                    "Нарвская ул.": {
                        "name": "Нарвская ул.",
                        "type": "street",
                        "childs": {
                            "citizens": [
                                "Виктор",
                                "Роман",
                                "Иван",
                                "Леонид",
                                "Тимофей",
                                "Олег"
                            ],
                            "cityId": 1
                        }
                    },
                    "Коптевская ул.": {
                        "name": "Коптевская ул.",
                        "type": "street",
                        "childs": {
                            "citizens": [
                                "Алексей",
                                "Жан"
                            ],
                            "cityId": 1
                        }
                    }
                }
            },
            "Отрадное р-н": {
                "name": "Отрадное р-н",
                "type": "district",
                "childs": {
                    "Сигнальный проезд": {
                        "name": "Сигнальный проезд",
                        "type": "street",
                        "childs": {
                            "citizens": [
                                "Ярослав",
                                "Вячеслав",
                                "Владислав",
                                "Валерий"
                            ],
                            "cityId": 1
                        }
                    },
                    "Отрадная ул.": {
                        "name": "Отрадная ул.",
                        "type": "street",
                        "childs": {
                            "citizens": [
                                "Антонина"
                            ],
                            "cityId": 1
                        }
                    }
                }
            }
        }
    },
    "Воронеж г.": {
        "name": "Воронеж г.",
        "type": "city",
        "childs": {
            "Советский р-н": {
                "name": "Советский р-н",
                "type": "district",
                "childs": {
                    "Патриотов пр-т": {
                        "name": "Патриотов пр-т",
                        "type": "street",
                        "childs": {
                            "citizens": [
                                "Григорий",
                                "Антон",
                                "Томара"
                            ],
                            "cityId": 2
                        }
                    },
                    "Кривошеина ул.": {
                        "name": "Кривошеина ул.",
                        "type": "street",
                        "childs": {
                            "citizens": [
                                "Александр",
                                "Дмитрий"
                            ],
                            "cityId": 2
                        }
                    }
                }
            },
            "Центральный р-н": {
                "name": "Центральный р-н",
                "type": "district",
                "childs": {
                    "Ленина ул.": {
                        "name": "Ленина ул.",
                        "type": "street",
                        "childs": {
                            "citizens": [
                                "Владимир"
                            ],
                            "cityId": 2
                        }
                    },
                    "Рабочий пр-т": {
                        "name": "Рабочий пр-т",
                        "type": "street",
                        "childs": {
                            "citizens": [
                                "Василий",
                                "Юлия",
                                "Петр",
                                "Елена",
                                "Валентина",
                                "Татьяна"
                            ],
                            "cityId": 2
                        }
                    }
                }
            }
        }
    },
    "Санкт-Петербург г.": {
        "name": "Санкт-Петербург г.",
        "type": "city",
        "childs": {
            "Выборгский р-н": {
                "name": "Выборгский р-н",
                "type": "district",
                "childs": {
                    "Светлановский пр-т": {
                        "name": "Светлановский пр-т",
                        "type": "street",
                        "childs": {
                            "citizens": [
                                "Яков",
                                "Светлана"
                            ],
                            "cityId": 3
                        }
                    },
                    "Орбели ул.": {
                        "name": "Орбели ул.",
                        "type": "street",
                        "childs": {
                            "citizens": [
                                "Виктория",
                                "Константин",
                                "Мирослава",
                                "Ян",
                                "Ольга",
                                "Анатолий"
                            ],
                            "cityId": 3
                        }
                    }
                }
            },
            "Фрунзенский р-н": {
                "name": "Фрунзенский р-н",
                "type": "district",
                "childs": {
                    "Лиговский пр-т": {
                        "name": "Лиговский пр-т",
                        "type": "street",
                        "childs": {
                            "citizens": [
                                "Николай",
                                "Семен",
                                "Ульяна",
                                "Влада",
                                "Олег"
                            ],
                            "cityId": 3
                        }
                    },
                    "Воронежская ул.": {
                        "name": "Воронежская ул.",
                        "type": "street",
                        "childs": {
                            "citizens": [
                                "Валентин",
                                "Наталья",
                                "Ирина",
                                "Кира"
                            ],
                            "cityId": 3
                        }
                    }
                }
            },
            "Воронежская ул.": {
                "name": "Воронежская ул.",
                "type": "street",
                "childs": {}
            },
            "Проспект мира.": {
                "name": "Проспект мира.",
                "type": "street",
                "childs": {}
            }
        }
    },
    "Россия": {
        "name": "Россия",
        "type": "country",
        "childs": {
            "Москва г.": {
                "name": "Москва г.",
                "type": "city",
                "childs": {
                    "Отрадное р-н": {
                        "name": "Отрадное р-н",
                        "type": "district",
                        "childs": {
                            "Сигнальный проезд": {
                                "name": "Сигнальный проезд",
                                "type": "street",
                                "childs": {
                                    "citizens": [
                                        "Россиянин"
                                    ],
                                    "cityId": 1
                                }
                            },
                            "Железнодорожный проезд": {
                                "name": "Железнодорожный проезд",
                                "type": "street",
                                "childs": {
                                    "78": {
                                        "name": "78",
                                        "type": "home",
                                        "childs": {
                                            "citizens": [
                                                "Домосед  1",
                                                "Домосед  2"
                                            ],
                                            "cityId": 1
                                        }
                                    }
                                }
                            }
                        }
                    }
                }
            }
        }
    }
}