[
    {
        "name": "Москва",
        "id": 1,
        "data": "10000000"
    },
    {
        "name": "Воронеж",
        "id": 2,
        "data": "1000000"
    },
    {
        "name": "Санкт-Петербург",
        "id": 3,
        "data": "3000000"
    }
]